Lab/Lab_5/Lab_5_6/simulation/qsim/Assignment6.msim.vcd
$comment
	File created using the following command:
		vcd file Assignment6.msim.vcd -direction
$end
$date
	Sun Jun 02 22:07:39 2024
$end
$version
	ModelSim Version 10.5b
$end
$timescale
	1ps
$end

$scope module Assignment6_vlg_vec_tst $end
$var reg 1 ! CLEAR $end
$var reg 1 " CLOCK $end
$var reg 8 # HanhNhi_A [7:0] $end
$var reg 1 $ WREN $end
$var wire 1 % HanhNhi_D [7] $end
$var wire 1 & HanhNhi_D [6] $end
$var wire 1 ' HanhNhi_D [5] $end
$var wire 1 ( HanhNhi_D [4] $end
$var wire 1 ) HanhNhi_D [3] $end
$var wire 1 * HanhNhi_D [2] $end
$var wire 1 + HanhNhi_D [1] $end
$var wire 1 , HanhNhi_D [0] $end

$scope module i1 $end
$var wire 1 - gnd $end
$var wire 1 . vcc $end
$var wire 1 / unknown $end
$var tri1 1 0 devclrn $end
$var tri1 1 1 devpor $end
$var tri1 1 2 devoe $end
$var wire 1 3 ~QUARTUS_CREATED_GND~I_combout $end
$var wire 1 4 CLOCK~input_o $end
$var wire 1 5 CLOCK~inputCLKENA0_outclk $end
$var wire 1 6 HanhNhi_A[7]~input_o $end
$var wire 1 7 inst7~feeder_combout $end
$var wire 1 8 CLEAR~input_o $end
$var wire 1 9 WREN~input_o $end
$var wire 1 : inst7~q $end
$var wire 1 ; HanhNhi_A[6]~input_o $end
$var wire 1 < inst6~q $end
$var wire 1 = HanhNhi_A[5]~input_o $end
$var wire 1 > inst5~feeder_combout $end
$var wire 1 ? inst5~q $end
$var wire 1 @ HanhNhi_A[4]~input_o $end
$var wire 1 A inst4~feeder_combout $end
$var wire 1 B inst4~q $end
$var wire 1 C HanhNhi_A[3]~input_o $end
$var wire 1 D inst3~feeder_combout $end
$var wire 1 E inst3~q $end
$var wire 1 F HanhNhi_A[2]~input_o $end
$var wire 1 G inst2~q $end
$var wire 1 H HanhNhi_A[1]~input_o $end
$var wire 1 I inst1~q $end
$var wire 1 J HanhNhi_A[0]~input_o $end
$var wire 1 K inst~q $end
$upscope $end
$upscope $end
$enddefinitions $end
#0
$dumpvars
0!
0"
b0 #
1$
0,
0+
0*
0)
0(
0'
0&
0%
0-
1.
x/
10
11
12
03
04
05
06
07
08
19
0:
0;
0<
0=
0>
0?
0@
0A
0B
0C
0D
0E
0F
0G
0H
0I
0J
0K
$end
#10000
1"
b1 #
14
1J
15
1K
1,
#20000
b11 #
0"
b10 #
0J
1H
04
05
#30000
1"
b11 #
14
1J
15
1I
1+
#40000
b111 #
b101 #
0"
b100 #
0J
0H
1F
04
05
#50000
1"
b101 #
14
1J
15
0I
1G
1*
0+
#60000
b111 #
0"
b110 #
0J
1H
04
05
#70000
1"
b111 #
14
1J
15
1I
1+
#80000
b1111 #
b1011 #
b1001 #
0"
b1000 #
0J
0H
0F
1C
04
05
1D
#90000
1"
b1001 #
14
1J
15
0I
0G
1E
1)
0*
0+
#100000
b1011 #
0"
b1010 #
0J
1H
04
05
#110000
1"
b1011 #
14
1J
15
1I
1+
#120000
b1111 #
b1101 #
0"
b1100 #
0J
0H
1F
04
05
#130000
1"
b1101 #
14
1J
15
0I
1G
1*
0+
#140000
b1111 #
0"
b1110 #
0J
1H
04
05
#150000
1"
b1111 #
14
1J
15
1I
1+
#160000
b11111 #
b10111 #
b10011 #
b10001 #
0"
b10000 #
0J
0H
0F
0C
1@
04
05
1A
0D
#170000
1"
b10001 #
14
1J
15
0I
0G
0E
1B
1(
0)
0*
0+
#180000
b10011 #
0"
b10010 #
0J
1H
04
05
#190000
1"
b10011 #
14
1J
15
1I
1+
