Lab/Lab_2/Lab_2_4_b/simulation/qsim/Assignment4b.msim.vcd
$comment
	File created using the following command:
		vcd file Assignment4b.msim.vcd -direction
$end
$date
	Mon Apr 29 18:20:41 2024
$end
$version
	ModelSim Version 10.5b
$end
$timescale
	1ps
$end

$scope module Assignment4b_vlg_vec_tst $end
$var reg 1 ! HANH_NHI_A $end
$var reg 1 " HANH_NHI_B $end
$var reg 1 # HANH_NHI_C $end
$var wire 1 $ HANH_NHI_Z $end

$scope module i1 $end
$var wire 1 % gnd $end
$var wire 1 & vcc $end
$var wire 1 ' unknown $end
$var tri1 1 ( devclrn $end
$var tri1 1 ) devpor $end
$var tri1 1 * devoe $end
$var wire 1 + ~QUARTUS_CREATED_GND~I_combout $end
$var wire 1 , HANH_NHI_B~input_o $end
$var wire 1 - HANH_NHI_A~input_o $end
$var wire 1 . HANH_NHI_C~input_o $end
$var wire 1 / inst5~0_combout $end
$upscope $end
$upscope $end
$enddefinitions $end
#0
$dumpvars
0!
0"
0#
0$
0%
1&
x'
1(
1)
1*
0+
0,
0-
0.
0/
$end
#20000
1#
1.
#40000
1"
0#
1,
0.
#60000
1#
1.
#80000
1!
0"
0#
1-
0,
0.
#100000
1#
1.
1/
1$
#120000
1"
0#
1,
0.
#140000
1#
1.
0/
0$
#160000
0!
0"
0#
0-
0,
0.
