Lab/Lab_2/Lab_2_5_b/simulation/qsim/Assignment5b.msim.vcd
$comment
	File created using the following command:
		vcd file Assignment5b.msim.vcd -direction
$end
$date
	Mon Apr 29 20:08:16 2024
$end
$version
	ModelSim Version 10.5b
$end
$timescale
	1ps
$end

$scope module Assignment5b_vlg_vec_tst $end
$var reg 1 ! HANH_NHI_A $end
$var reg 1 " HANH_NHI_B $end
$var reg 1 # HANH_NHI_C $end
$var reg 1 $ HANH_NHI_D $end
$var wire 1 % HANH_NHI_Z $end

$scope module i1 $end
$var wire 1 & gnd $end
$var wire 1 ' vcc $end
$var wire 1 ( unknown $end
$var tri1 1 ) devclrn $end
$var tri1 1 * devpor $end
$var tri1 1 + devoe $end
$var wire 1 , HANH_NHI_Z~output_o $end
$var wire 1 - HANH_NHI_B~input_o $end
$var wire 1 . HANH_NHI_A~input_o $end
$var wire 1 / HANH_NHI_D~input_o $end
$var wire 1 0 HANH_NHI_C~input_o $end
$var wire 1 1 inst6~0_combout $end
$upscope $end
$upscope $end
$enddefinitions $end
#0
$dumpvars
0!
0"
0#
0$
1%
0&
1'
x(
1)
1*
1+
1,
0-
0.
0/
00
11
$end
#10000
1$
1/
#20000
1#
0$
10
0/
01
0,
0%
#30000
1$
1/
11
1,
1%
#40000
1"
0#
0$
1-
00
0/
#50000
1$
1/
#60000
1#
0$
10
0/
#70000
1$
1/
#80000
1!
0"
0#
0$
1.
0-
00
0/
01
0,
0%
#90000
1$
1/
#100000
1#
0$
10
0/
#110000
1$
1/
#120000
1"
0#
0$
1-
00
0/
#130000
1$
1/
11
1,
1%
#140000
1#
0$
10
0/
01
0,
0%
#150000
1$
1/
11
1,
1%
#160000
0!
0"
0#
0$
0.
0-
00
0/
