Lab/Lab_4/Lab_4_3/simulation/qsim/Assignment3.msim.vcd
$comment
	File created using the following command:
		vcd file Assignment3.msim.vcd -direction
$end
$date
	Mon May 20 02:15:48 2024
$end
$version
	ModelSim Version 10.5b
$end
$timescale
	1ps
$end

$scope module Assignment3_vlg_vec_tst $end
$var reg 1 ! HanhNhi_CLOCK $end
$var reg 1 " HanhNhi_Reset $end
$var reg 1 # HanhNhi_X $end
$var reg 1 $ HanhNhi_Y $end
$var wire 1 % HanhNhi_A $end
$var wire 1 & HanhNhi_B $end
$var wire 1 ' HanhNhi_Z $end

$scope module i1 $end
$var wire 1 ( gnd $end
$var wire 1 ) vcc $end
$var wire 1 * unknown $end
$var tri1 1 + devclrn $end
$var tri1 1 , devpor $end
$var tri1 1 - devoe $end
$var wire 1 . ~QUARTUS_CREATED_GND~I_combout $end
$var wire 1 / HanhNhi_CLOCK~input_o $end
$var wire 1 0 HanhNhi_CLOCK~inputCLKENA0_outclk $end
$var wire 1 1 HanhNhi_Y~input_o $end
$var wire 1 2 A~0_combout $end
$var wire 1 3 HanhNhi_Reset~input_o $end
$var wire 1 4 HanhNhi_X~input_o $end
$var wire 1 5 A~q $end
$var wire 1 6 B~q $end
$var wire 1 7 inst7~combout $end
$upscope $end
$upscope $end
$enddefinitions $end
#0
$dumpvars
0!
0"
0#
0$
0%
0&
0'
0(
1)
x*
1+
1,
1-
0.
0/
00
01
12
03
04
05
06
07
$end
#12500
1!
1/
10
15
1%
#25000
0!
0/
00
#30000
1$
11
02
#37500
1!
1/
10
16
05
0%
1&
17
1'
#50000
0$
0!
01
0/
00
12
#60000
1#
14
07
0'
#62500
1!
1/
10
#70000
0#
04
17
1'
#75000
0!
0/
00
#80000
1$
1#
11
14
07
02
0'
#87500
1!
1/
10
#100000
0$
0#
0!
01
04
0/
00
17
12
1'
#112500
1!
1/
10
06
15
1%
0&
07
0'
#125000
0!
0/
00
#137500
1!
1/
10
16
1&
17
1'
#150000
0!
0/
00
#162500
1!
1/
10
#175000
0!
0/
00
#187500
1!
1/
10
