Lab/Lab_6/Lab_6_4/simulation/qsim/Assignment4.msim.vcd
$comment
	File created using the following command:
		vcd file Assignment4.msim.vcd -direction
$end
$date
	Thu Jun 13 08:37:54 2024
$end
$version
	ModelSim Version 10.5b
$end
$timescale
	1ps
$end

$scope module Assignment4_vlg_vec_tst $end
$var reg 1 ! HNhi_CLEAR $end
$var reg 1 " HNhi_CLOCK $end
$var reg 24 # HNhi_q [23:0] $end
$var reg 1 $ HNhi_WREN $end
$var wire 1 % HNhi_Offset [7] $end
$var wire 1 & HNhi_Offset [6] $end
$var wire 1 ' HNhi_Offset [5] $end
$var wire 1 ( HNhi_Offset [4] $end
$var wire 1 ) HNhi_Offset [3] $end
$var wire 1 * HNhi_Offset [2] $end
$var wire 1 + HNhi_Offset [1] $end
$var wire 1 , HNhi_Offset [0] $end
$var wire 1 - HNhi_OperationCode [2] $end
$var wire 1 . HNhi_OperationCode [1] $end
$var wire 1 / HNhi_OperationCode [0] $end
$var wire 1 0 HNhi_RegA [2] $end
$var wire 1 1 HNhi_RegA [1] $end
$var wire 1 2 HNhi_RegA [0] $end
$var wire 1 3 HNhi_RegB [2] $end
$var wire 1 4 HNhi_RegB [1] $end
$var wire 1 5 HNhi_RegB [0] $end
$var wire 1 6 HNhi_RegC [2] $end
$var wire 1 7 HNhi_RegC [1] $end
$var wire 1 8 HNhi_RegC [0] $end

$scope module i1 $end
$var wire 1 9 gnd $end
$var wire 1 : vcc $end
$var wire 1 ; unknown $end
$var tri1 1 < devclrn $end
$var tri1 1 = devpor $end
$var tri1 1 > devoe $end
$var wire 1 ? HNhi_q[23]~input_o $end
$var wire 1 @ HNhi_q[19]~input_o $end
$var wire 1 A HNhi_q[15]~input_o $end
$var wire 1 B HNhi_q[11]~input_o $end
$var wire 1 C ~QUARTUS_CREATED_GND~I_combout $end
$var wire 1 D HNhi_CLOCK~input_o $end
$var wire 1 E HNhi_CLOCK~inputCLKENA0_outclk $end
$var wire 1 F HNhi_q[7]~input_o $end
$var wire 1 G inst2|inst7~feeder_combout $end
$var wire 1 H HNhi_CLEAR~input_o $end
$var wire 1 I HNhi_WREN~input_o $end
$var wire 1 J inst2|inst7~q $end
$var wire 1 K HNhi_q[6]~input_o $end
$var wire 1 L inst2|inst6~q $end
$var wire 1 M HNhi_q[5]~input_o $end
$var wire 1 N inst2|inst5~q $end
$var wire 1 O HNhi_q[4]~input_o $end
$var wire 1 P inst2|inst4~feeder_combout $end
$var wire 1 Q inst2|inst4~q $end
$var wire 1 R HNhi_q[3]~input_o $end
$var wire 1 S inst2|inst3~q $end
$var wire 1 T HNhi_q[2]~input_o $end
$var wire 1 U inst2|inst2~q $end
$var wire 1 V HNhi_q[1]~input_o $end
$var wire 1 W inst2|inst1~feeder_combout $end
$var wire 1 X inst2|inst1~q $end
$var wire 1 Y HNhi_q[0]~input_o $end
$var wire 1 Z inst2|inst~feeder_combout $end
$var wire 1 [ inst2|inst~q $end
$var wire 1 \ HNhi_q[22]~input_o $end
$var wire 1 ] inst|inst6~feeder_combout $end
$var wire 1 ^ inst|inst6~q $end
$var wire 1 _ HNhi_q[21]~input_o $end
$var wire 1 ` inst|inst5~feeder_combout $end
$var wire 1 a inst|inst5~q $end
$var wire 1 b HNhi_q[20]~input_o $end
$var wire 1 c inst|inst4~feeder_combout $end
$var wire 1 d inst|inst4~q $end
$var wire 1 e HNhi_q[18]~input_o $end
$var wire 1 f inst|inst2~feeder_combout $end
$var wire 1 g inst|inst2~q $end
$var wire 1 h HNhi_q[17]~input_o $end
$var wire 1 i inst|inst1~feeder_combout $end
$var wire 1 j inst|inst1~q $end
$var wire 1 k HNhi_q[16]~input_o $end
$var wire 1 l inst|inst~feeder_combout $end
$var wire 1 m inst|inst~q $end
$var wire 1 n HNhi_q[14]~input_o $end
$var wire 1 o inst1|inst6~q $end
$var wire 1 p HNhi_q[13]~input_o $end
$var wire 1 q inst1|inst5~q $end
$var wire 1 r HNhi_q[12]~input_o $end
$var wire 1 s inst1|inst4~feeder_combout $end
$var wire 1 t inst1|inst4~q $end
$var wire 1 u HNhi_q[10]~input_o $end
$var wire 1 v inst1|inst2~feeder_combout $end
$var wire 1 w inst1|inst2~q $end
$var wire 1 x HNhi_q[9]~input_o $end
$var wire 1 y inst1|inst1~feeder_combout $end
$var wire 1 z inst1|inst1~q $end
$var wire 1 { HNhi_q[8]~input_o $end
$var wire 1 | inst1|inst~q $end
$upscope $end
$upscope $end
$enddefinitions $end
#0
$dumpvars
0!
0"
b10100000000000100000001 #
1$
0,
0+
0*
0)
0(
0'
0&
0%
0/
0.
0-
02
01
00
05
04
03
08
07
06
09
1:
x;
1<
1=
1>
0?
0@
0A
0B
0C
0D
0E
0F
0G
0H
1I
0J
0K
0L
0M
0N
0O
0P
0Q
0R
0S
0T
0U
0V
0W
0X
1Y
1Z
0[
1\
1]
0^
0_
0`
0a
1b
1c
0d
0e
0f
0g
0h
0i
0j
0k
0l
0m
0n
0o
0p
0q
0r
0s
0t
0u
0v
0w
0x
0y
0z
1{
0|
$end
#5000
1"
1D
1E
1|
1d
1^
1[
1,
1-
1/
18
#10000
b10100000000000100000011 #
b10100000000000100000010 #
0"
0Y
1V
0D
0E
1W
0Z
#15000
1"
1D
1E
0[
1X
1+
0,
#20000
b10100000000000100000011 #
0"
1Y
0D
0E
1Z
#25000
1"
1D
1E
1[
1,
#30000
b10100000000000100000111 #
b10100000000000100000101 #
b10100000000000100000100 #
0"
0Y
0V
1T
0D
0E
0W
0Z
#35000
1"
1D
1E
0[
0X
1U
1*
0+
0,
#40000
b10100000000000100000101 #
0"
1Y
0D
0E
1Z
#45000
1"
1D
1E
1[
1,
#50000
b10100000000000100000111 #
b10100000000000100000110 #
0"
0Y
1V
0D
0E
1W
0Z
#55000
1"
1D
1E
0[
1X
1+
0,
#60000
b10100000000000100000111 #
0"
1Y
0D
0E
1Z
#65000
1"
1D
1E
1[
1,
#70000
b10100000000000100001111 #
b10100000000000100001011 #
b10100000000000100001001 #
b10100000000000100001000 #
0"
0Y
0V
0T
1R
0D
0E
0W
0Z
#75000
1"
1D
1E
0[
0X
0U
1S
1)
0*
0+
0,
#80000
b10100000000000100001001 #
0"
1Y
0D
0E
1Z
#85000
1"
1D
1E
1[
1,
#90000
b10100000000000100001011 #
b10100000000000100001010 #
0"
0Y
1V
0D
0E
1W
0Z
#95000
1"
1D
1E
0[
1X
1+
0,
#100000
b10100000000000100001011 #
0"
1Y
0D
0E
1Z
#105000
1"
1D
1E
1[
1,
#110000
b10100000000000100001111 #
b10100000000000100001101 #
b10100000000000100001100 #
0"
0Y
0V
1T
0D
0E
0W
0Z
#115000
1"
1D
1E
0[
0X
1U
1*
0+
0,
#120000
b10100000000000100001101 #
0"
1Y
0D
0E
1Z
#125000
1"
1D
1E
1[
1,
#130000
b10100000000000100001111 #
b10100000000000100001110 #
0"
0Y
1V
0D
0E
1W
0Z
#135000
1"
1D
1E
0[
1X
1+
0,
#140000
b10100000000000100001111 #
0"
1Y
0D
0E
1Z
#145000
1"
1D
1E
1[
1,
#150000
b10100000000000100011111 #
b10100000000000100010111 #
b10100000000000100010011 #
b10100000000000100010001 #
b10100000000000100010000 #
0"
0Y
0V
0T
0R
1O
0D
0E
1P
0W
0Z
#155000
1"
1D
1E
0[
0X
0U
0S
1Q
1(
0)
0*
0+
0,
#160000
b10100000000000100010001 #
0"
1Y
0D
0E
1Z
#165000
1"
1D
1E
1[
1,
#170000
b10100000000000100010011 #
b10100000000000100010010 #
0"
0Y
1V
0D
0E
1W
0Z
#175000
1"
1D
1E
0[
1X
1+
0,
#180000
b10100000000000100010011 #
0"
1Y
0D
0E
1Z
#185000
1"
1D
1E
1[
1,
#190000
b10100000000000100010111 #
b10100000000000100010101 #
b10100000000000100010100 #
0"
0Y
0V
1T
0D
0E
0W
0Z
#195000
1"
1D
1E
0[
0X
1U
1*
0+
0,
